Tidy data
…
Multiple types of observational units are stored in the same table.

A single observational unit is stored in multiple tables.

Surprisingly, most messy datasets, including types of messiness not explicitly described above, can be tidied with a small set of tools: gathering, separating and spreading. The following sections illustrate each problem with a real dataset that I have encountered, and show how to tidy them.

Column headers are values, not variable names

A common type of messy dataset is tabular data designed for presentation, where variables form both the rows and columns, and column headers are values, not variable names. While I would call this arrangement messy, in some cases it can be extremely useful. It provides efficient storage for completely crossed designs, and it can lead to extremely efficient computation if desired operations can be expressed as matrix operations.

The following code shows a subset of a typical dataset of this form. This dataset explores the relationship between income and religion in the US. It comes from a report produced by the Pew Research Center, an American think-tank that collects data on attitudes to topics ranging from religion to the internet, and produces many reports that contain datasets in this format.

relig_income
#> # A tibble: 18 x 11
#>    religion `<$10k` `$10-20k` `$20-30k` `$30-40k` `$40-50k` `$50-75k` `$75-100k`
#>    <chr>      <dbl>     <dbl>     <dbl>     <dbl>     <dbl>     <dbl>      <dbl>
#>  1 Agnostic      27        34        60        81        76       137        122
#>  2 Atheist       12        27        37        52        35        70         73
#>  3 Buddhist      27        21        30        34        33        58         62
#>  4 Catholic     418       617       732       670       638      1116        949
#>  5 Don’t k~      15        14        15        11        10        35         21
#>  6 Evangel~     575       869      1064       982       881      1486        949
#>  7 Hindu          1         9         7         9        11        34         47
#>  8 Histori~     228       244       236       238       197       223        131
#>  9 Jehovah~      20        27        24        24        21        30         15
#> 10 Jewish        19        19        25        25        30        95         69
#> # ... with 8 more rows, and 3 more variables: `$100-150k` <dbl>, `>150k` <dbl>,
#> #   `Don't know/refused` <dbl>

This dataset has three variables, religion, income and frequency. To tidy it, we need to gather the non-variable columns into a two-column key-value pair. This action is often described as making a wide dataset long (or tall), but I’ll avoid those terms because they’re imprecise.

When gathering variables, we need to provide the name of the new key-value columns to create. The first argument, is the name of the key column, which is the name of the variable defined by the values of the column headings. In this case, it’s income. The second argument is the name of the value column, frequency. The third argument defines the columns to gather, here, every column except religion.

relig_income %>% 
  pivot_longer(-religion, names_to = "income", values_to = "frequency")
#> # A tibble: 180 x 3
#>    religion income             frequency
#>    <chr>    <chr>                  <dbl>
#>  1 Agnostic <$10k                     27
#>  2 Agnostic $10-20k                   34
#>  3 Agnostic $20-30k                   60
#>  4 Agnostic $30-40k                   81
#>  5 Agnostic $40-50k                   76
#>  6 Agnostic $50-75k                  137
#>  7 Agnostic $75-100k                 122
#>  8 Agnostic $100-150k                109
#>  9 Agnostic >150k                     84
#> 10 Agnostic Don't know/refused        96
#> # ... with 170 more rows

This form is tidy because each column represents a variable and each row represents an observation, in this case a demographic unit corresponding to a combination of religion and income.

This format is also used to record regularly spaced observations over time. For example, the Billboard dataset shown below records the date a song first entered the billboard top 100. It has variables for artist, track, date.entered, rank and week. The rank in each week after it enters the top 100 is recorded in 75 columns, wk1 to wk75. This form of storage is not tidy, but it is useful for data entry. It reduces duplication since otherwise each song in each week would need its own row, and song metadata like title and artist would need to be repeated. This will be discussed in more depth in multiple types.

billboard
#> # A tibble: 317 x 79
#>    artist track date.entered   wk1   wk2   wk3   wk4   wk5   wk6   wk7   wk8
#>    <chr>  <chr> <date>       <dbl> <dbl> <dbl> <dbl> <dbl> <dbl> <dbl> <dbl>
#>  1 2 Pac  Baby~ 2000-02-26      87    82    72    77    87    94    99    NA
#>  2 2Ge+h~ The ~ 2000-09-02      91    87    92    NA    NA    NA    NA    NA
#>  3 3 Doo~ Kryp~ 2000-04-08      81    70    68    67    66    57    54    53
#>  4 3 Doo~ Loser 2000-10-21      76    76    72    69    67    65    55    59
#>  5 504 B~ Wobb~ 2000-04-15      57    34    25    17    17    31    36    49
#>  6 98^0   Give~ 2000-08-19      51    39    34    26    26    19     2     2
#>  7 A*Tee~ Danc~ 2000-07-08      97    97    96    95   100    NA    NA    NA
#>  8 Aaliy~ I Do~ 2000-01-29      84    62    51    41    38    35    35    38
#>  9 Aaliy~ Try ~ 2000-03-18      59    53    38    28    21    18    16    14
#> 10 Adams~ Open~ 2000-08-26      76    76    74    69    68    67    61    58
#> # ... with 307 more rows, and 68 more variables: wk9 <dbl>, wk10 <dbl>,
#> #   wk11 <dbl>, wk12 <dbl>, wk13 <dbl>, wk14 <dbl>, wk15 <dbl>, wk16 <dbl>,
#> #   wk17 <dbl>, wk18 <dbl>, wk19 <dbl>, wk20 <dbl>, wk21 <dbl>, wk22 <dbl>,
#> #   wk23 <dbl>, wk24 <dbl>, wk25 <dbl>, wk26 <dbl>, wk27 <dbl>, wk28 <dbl>,
#> #   wk29 <dbl>, wk30 <dbl>, wk31 <dbl>, wk32 <dbl>, wk33 <dbl>, wk34 <dbl>,
#> #   wk35 <dbl>, wk36 <dbl>, wk37 <dbl>, wk38 <dbl>, wk39 <dbl>, wk40 <dbl>,
#> #   wk41 <dbl>, wk42 <dbl>, wk43 <dbl>, wk44 <dbl>, wk45 <dbl>, wk46 <dbl>,
#> #   wk47 <dbl>, wk48 <dbl>, wk49 <dbl>, wk50 <dbl>, wk51 <dbl>, wk52 <dbl>,
#> #   wk53 <dbl>, wk54 <dbl>, wk55 <dbl>, wk56 <dbl>, wk57 <dbl>, wk58 <dbl>,
#> #   wk59 <dbl>, wk60 <dbl>, wk61 <dbl>, wk62 <dbl>, wk63 <dbl>, wk64 <dbl>,
#> #   wk65 <dbl>, wk66 <lgl>, wk67 <lgl>, wk68 <lgl>, wk69 <lgl>, wk70 <lgl>,
#> #   wk71 <lgl>, wk72 <lgl>, wk73 <lgl>, wk74 <lgl>, wk75 <lgl>, wk76 <lgl>

To tidy this dataset, we first gather together all the wk columns. The column names give the week and the values are the ranks:

billboard2 <- billboard %>% 
  pivot_longer(
    wk1:wk76, 
    names_to = "week", 
    values_to = "rank", 
    values_drop_na = TRUE
  )
billboard2
#> # A tibble: 5,307 x 5
#>    artist  track                   date.entered week   rank
#>    <chr>   <chr>                   <date>       <chr> <dbl>
#>  1 2 Pac   Baby Don't Cry (Keep... 2000-02-26   wk1      87
#>  2 2 Pac   Baby Don't Cry (Keep... 2000-02-26   wk2      82
#>  3 2 Pac   Baby Don't Cry (Keep... 2000-02-26   wk3      72
#>  4 2 Pac   Baby Don't Cry (Keep... 2000-02-26   wk4      77
#>  5 2 Pac   Baby Don't Cry (Keep... 2000-02-26   wk5      87
#>  6 2 Pac   Baby Don't Cry (Keep... 2000-02-26   wk6      94
#>  7 2 Pac   Baby Don't Cry (Keep... 2000-02-26   wk7      99
#>  8 2Ge+her The Hardest Part Of ... 2000-09-02   wk1      91
#>  9 2Ge+her The Hardest Part Of ... 2000-09-02   wk2      87
#> 10 2Ge+her The Hardest Part Of ... 2000-09-02   wk3      92
#> # ... with 5,297 more rows

Here we use na.rm to drop any missing values from the gather columns. In this data, missing values represent weeks that the song wasn’t in the charts, so can be safely dropped.

In this case it’s also nice to do a little cleaning, converting the week variable to a number, and figuring out the date corresponding to each week on the charts:

billboard3 <- billboard2 %>%
  mutate(
    week = extract_numeric(week),
    date = as.Date(date.entered) + 7 * (week - 1)) %>%
  select(-date.entered)
#> extract_numeric() is deprecated: please use readr::parse_number() instead
billboard3
#> # A tibble: 5,307 x 5
#>    artist  track                    week  rank date      
#>    <chr>   <chr>                   <dbl> <dbl> <date>    
#>  1 2 Pac   Baby Don't Cry (Keep...     1    87 2000-02-26
#>  2 2 Pac   Baby Don't Cry (Keep...     2    82 2000-03-04
#>  3 2 Pac   Baby Don't Cry (Keep...     3    72 2000-03-11
#>  4 2 Pac   Baby Don't Cry (Keep...     4    77 2000-03-18
#>  5 2 Pac   Baby Don't Cry (Keep...     5    87 2000-03-25
#>  6 2 Pac   Baby Don't Cry (Keep...     6    94 2000-04-01
#>  7 2 Pac   Baby Don't Cry (Keep...     7    99 2000-04-08
#>  8 2Ge+her The Hardest Part Of ...     1    91 2000-09-02
#>  9 2Ge+her The Hardest Part Of ...     2    87 2000-09-09
#> 10 2Ge+her The Hardest Part Of ...     3    92 2000-09-16
#> # ... with 5,297 more rows

Finally, it’s always a good idea to sort the data. We could do it by artist, track and week:

billboard3 %>% arrange(artist, track, week)
#> # A tibble: 5,307 x 5
#>    artist  track                    week  rank date      
#>    <chr>   <chr>                   <dbl> <dbl> <date>    
#>  1 2 Pac   Baby Don't Cry (Keep...     1    87 2000-02-26
#>  2 2 Pac   Baby Don't Cry (Keep...     2    82 2000-03-04
#>  3 2 Pac   Baby Don't Cry (Keep...     3    72 2000-03-11
#>  4 2 Pac   Baby Don't Cry (Keep...     4    77 2000-03-18
#>  5 2 Pac   Baby Don't Cry (Keep...     5    87 2000-03-25
#>  6 2 Pac   Baby Don't Cry (Keep...     6    94 2000-04-01
#>  7 2 Pac   Baby Don't Cry (Keep...     7    99 2000-04-08
#>  8 2Ge+her The Hardest Part Of ...     1    91 2000-09-02
#>  9 2Ge+her The Hardest Part Of ...     2    87 2000-09-09
#> 10 2Ge+her The Hardest Part Of ...     3    92 2000-09-16
#> # ... with 5,297 more rows

Or by date and rank:

billboard3 %>% arrange(date, rank)
#> # A tibble: 5,307 x 5
#>    artist   track   week  rank date      
#>    <chr>    <chr>  <dbl> <dbl> <date>    
#>  1 Lonestar Amazed     1    81 1999-06-05
#>  2 Lonestar Amazed     2    54 1999-06-12
#>  3 Lonestar Amazed     3    44 1999-06-19
#>  4 Lonestar Amazed     4    39 1999-06-26
#>  5 Lonestar Amazed     5    38 1999-07-03
#>  6 Lonestar Amazed     6    33 1999-07-10
#>  7 Lonestar Amazed     7    29 1999-07-17
#>  8 Amber    Sexual     1    99 1999-07-17
#>  9 Lonestar Amazed     8    29 1999-07-24
#> 10 Amber    Sexual     2    99 1999-07-24
#> # ... with 5,297 more rows
…
Alternatively, we could have combined the above steps

tb %>% pivot_longer(
  !c(country, year), 
  names_to = c("sex", "age"), 
  names_pattern = "(.)(.+)",
  values_to = "n", 
  values_drop_na = TRUE
)
#> # A tibble: 35,750 x 5
#>    country  year sex   age       n
#>    <chr>   <int> <chr> <chr> <int>
#>  1 AD       1996 m     014       0
#>  2 AD       1996 m     1524      0
#>  3 AD       1996 m     2534      0
#>  4 AD       1996 m     3544      4
#>  5 AD       1996 m     4554      1
#>  6 AD       1996 m     5564      0
#>  7 AD       1996 m     65        0
#>  8 AD       1996 f     014       0
#>  9 AD       1996 f     1524      1
#> 10 AD       1996 f     2534      1
#> # ... with 35,740 more rows

Storing the values in this form resolves a problem in the original data. We want to compare rates, not counts, which means we need to know the population. In the original format, there is no easy way to add a population variable. It has to be stored in a separate table, which makes it hard to correctly match populations to counts. In tidy form, adding variables for population and rate is easy because they’re just additional columns.

Variables are stored in both rows and columns

The most complicated form of messy data occurs when variables are stored in both rows and columns. The code below loads daily weather data from the Global Historical Climatology Network for one weather station (MX17004) in Mexico for five months in 2010.

weather <- as_tibble(read.csv("weather.csv", stringsAsFactors = FALSE))
weather
#> # A tibble: 22 x 36
#>        X id     year month element    d1    d2    d3    d4    d5    d6    d7
#>    <int> <chr> <int> <int> <chr>   <dbl> <dbl> <dbl> <dbl> <dbl> <dbl> <dbl>
#>  1     1 MX17~  2010     1 tmax       NA  NA    NA      NA  NA      NA    NA
#>  2     2 MX17~  2010     1 tmin       NA  NA    NA      NA  NA      NA    NA
#>  3     3 MX17~  2010     2 tmax       NA  27.3  24.1    NA  NA      NA    NA
#>  4     4 MX17~  2010     2 tmin       NA  14.4  14.4    NA  NA      NA    NA
#>  5     5 MX17~  2010     3 tmax       NA  NA    NA      NA  32.1    NA    NA
#>  6     6 MX17~  2010     3 tmin       NA  NA    NA      NA  14.2    NA    NA
#>  7     7 MX17~  2010     4 tmax       NA  NA    NA      NA  NA      NA    NA
#>  8     8 MX17~  2010     4 tmin       NA  NA    NA      NA  NA      NA    NA
#>  9     9 MX17~  2010     5 tmax       NA  NA    NA      NA  NA      NA    NA
#> 10    10 MX17~  2010     5 tmin       NA  NA    NA      NA  NA      NA    NA
#> # ... with 12 more rows, and 24 more variables: d8 <dbl>, d9 <lgl>, d10 <dbl>,
#> #   d11 <dbl>, d12 <lgl>, d13 <dbl>, d14 <dbl>, d15 <dbl>, d16 <dbl>,
#> #   d17 <dbl>, d18 <lgl>, d19 <lgl>, d20 <lgl>, d21 <lgl>, d22 <lgl>,
#> #   d23 <dbl>, d24 <lgl>, d25 <dbl>, d26 <dbl>, d27 <dbl>, d28 <dbl>,
#> #   d29 <dbl>, d30 <dbl>, d31 <dbl>

It has variables in individual columns (id, year, month), spread across columns (day, d1-d31) and across rows (tmin, tmax) (minimum and maximum temperature). Months with fewer than 31 days have structural missing values for the last day(s) of the month.

To tidy this dataset we first gather the day columns by using pivot_longer:

weather2 <- weather %>% 
  pivot_longer(
    d1:d31, 
    names_to = "day", 
    values_to = "value", 
    values_drop_na = TRUE
  ) 
weather2
#> # A tibble: 66 x 7
#>        X id       year month element day   value
#>    <int> <chr>   <int> <int> <chr>   <chr> <dbl>
#>  1     1 MX17004  2010     1 tmax    d30    27.8
#>  2     2 MX17004  2010     1 tmin    d30    14.5
#>  3     3 MX17004  2010     2 tmax    d2     27.3
#>  4     3 MX17004  2010     2 tmax    d3     24.1
#>  5     3 MX17004  2010     2 tmax    d11    29.7
#>  6     3 MX17004  2010     2 tmax    d23    29.9
#>  7     4 MX17004  2010     2 tmin    d2     14.4
#>  8     4 MX17004  2010     2 tmin    d3     14.4
#>  9     4 MX17004  2010     2 tmin    d11    13.4
#> 10     4 MX17004  2010     2 tmin    d23    10.7
#> # ... with 56 more rows

For presentation, I’ve dropped the missing values, making them implicit rather than explicit. This is ok because we know how many days are in each month and can easily reconstruct the explicit missing values.

We’ll also do a little cleaning:

weather3 <- weather2 %>% 
  mutate(day = as.integer(gsub("d", "", day))) %>%
  select(id, year, month, day, element, value)
weather3
#> # A tibble: 66 x 6
#>    id       year month   day element value
#>    <chr>   <int> <int> <int> <chr>   <dbl>
#>  1 MX17004  2010     1    30 tmax     27.8
#>  2 MX17004  2010     1    30 tmin     14.5
#>  3 MX17004  2010     2     2 tmax     27.3
#>  4 MX17004  2010     2     3 tmax     24.1
#>  5 MX17004  2010     2    11 tmax     29.7
#>  6 MX17004  2010     2    23 tmax     29.9
#>  7 MX17004  2010     2     2 tmin     14.4
#>  8 MX17004  2010     2     3 tmin     14.4
#>  9 MX17004  2010     2    11 tmin     13.4
#> 10 MX17004  2010     2    23 tmin     10.7
#> # ... with 56 more rows

This dataset is mostly tidy, but the element column is not a variable; it stores the names of variables. (Not shown in this example are the other meteorological variables prcp (precipitation) and snow (snowfall)). Fixing this requires the spread operation. This performs the inverse of gathering by spreading the element and value columns back out into the columns:

weather3 %>% 
  pivot_wider(names_from = element, values_from = value)
#> # A tibble: 33 x 6
#>    id       year month   day  tmax  tmin
#>    <chr>   <int> <int> <int> <dbl> <dbl>
#>  1 MX17004  2010     1    30  27.8  14.5
#>  2 MX17004  2010     2     2  27.3  14.4
#>  3 MX17004  2010     2     3  24.1  14.4
#>  4 MX17004  2010     2    11  29.7  13.4
#>  5 MX17004  2010     2    23  29.9  10.7
#>  6 MX17004  2010     3     5  32.1  14.2
#>  7 MX17004  2010     3    10  34.5  16.8
#>  8 MX17004  2010     3    16  31.1  17.6
#>  9 MX17004  2010     4    27  36.3  16.7
#> 10 MX17004  2010     5    27  33.2  18.2
#> # ... with 23 more rows
This form is tidy: there’s one variable in each column, and each row represents one day.

Multiple types in one table

Datasets often involve values collected at multiple levels, on different types of observational units. During tidying, each type of observational unit should be stored in its own table. This is closely related to the idea of database normalisation, where each fact is expressed in only one place. It’s important because otherwise inconsistencies can arise.

The billboard dataset actually contains observations on two types of observational units: the song and its rank in each week. This manifests itself through the duplication of facts about the song: artist is repeated many times.

This dataset needs to be broken down into two pieces: a song dataset which stores artist and song name, and a ranking dataset which gives the rank of the song in each week. We first extract a song dataset:

song <- billboard3 %>% 
 distinct(artist, track) %>%
  mutate(song_id = row_number())
song
#> # A tibble: 317 x 3
#>    artist         track                   song_id
#>    <chr>          <chr>                     <int>
#>  1 2 Pac          Baby Don't Cry (Keep...       1
#>  2 2Ge+her        The Hardest Part Of ...       2
#>  3 3 Doors Down   Kryptonite                    3
#>  4 3 Doors Down   Loser                         4
#>  5 504 Boyz       Wobble Wobble                 5
#>  6 98^0           Give Me Just One Nig...       6
#>  7 A*Teens        Dancing Queen                 7
#>  8 Aaliyah        I Don't Wanna                 8
#>  9 Aaliyah        Try Again                     9
#> 10 Adams, Yolanda Open My Heart                10
#> # ... with 307 more rows

Then use that to make a rank dataset by replacing repeated song facts with a pointer to song details (a unique song id):

rank <- billboard3 %>%
  left_join(song, c("artist", "track")) %>%
  select(song_id, date, week, rank) %>%
  arrange(song_id, date)
rank
#> # A tibble: 5,307 x 4
#>    song_id date        week  rank
#>      <int> <date>     <dbl> <dbl>
#>  1       1 2000-02-26     1    87
#>  2       1 2000-03-04     2    82
#>  3       1 2000-03-11     3    72
#>  4       1 2000-03-18     4    77
#>  5       1 2000-03-25     5    87
#>  6       1 2000-04-01     6    94
#>  7       1 2000-04-08     7    99
#>  8       2 2000-09-02     1    91
#>  9       2 2000-09-09     2    87
#> 10       2 2000-09-16     3    92
#> # ... with 5,297 more rows
…
